%YAML 1.1
%TAG !u! tag:unity3d.com,2011:
--- !u!114 &11400000
MonoBehaviour:
  m_ObjectHideFlags: 0
  m_CorrespondingSourceObject: {fileID: 0}
  m_PrefabInstance: {fileID: 0}
  m_PrefabAsset: {fileID: 0}
  m_GameObject: {fileID: 0}
  m_Enabled: 1
  m_EditorHideFlags: 0
  m_Script: {fileID: 11500000, guid: 9898f0ebced24e59acc923ba70d5e8e2, type: 3}
  m_Name: recon_lv4_b
  m_EditorClassIdentifier: 
  enumValue: {fileID: 11400000, guid: 317f193ca7599674ca16930020106552, type: 2}
  towerPrefab: {fileID: 3677258560958360516, guid: a2f3c5be25e87174aae92b5330b67bd2, type: 3}
  displayName: recon_lv4_b
  description:
  - Line 1
  - Line 2
  - Line 3
  forSell: 0
  price: 300
  upgradeTowers:
  - {fileID: 11400000, guid: fd2a534532fc0df47b5a9575aa510519, type: 2}
