%YAML 1.1
%TAG !u! tag:unity3d.com,2011:
--- !u!114 &11400000
MonoBehaviour:
  m_ObjectHideFlags: 0
  m_CorrespondingSourceObject: {fileID: 0}
  m_PrefabInstance: {fileID: 0}
  m_PrefabAsset: {fileID: 0}
  m_GameObject: {fileID: 0}
  m_Enabled: 1
  m_EditorHideFlags: 0
  m_Script: {fileID: 11500000, guid: 9898f0ebced24e59acc923ba70d5e8e2, type: 3}
  m_Name: recon_lv3
  m_EditorClassIdentifier: 
  enumValue: {fileID: 11400000, guid: 0742f6e9f52b25341808f6949aca8383, type: 2}
  towerPrefab: {fileID: 3677258560958360516, guid: 5f3cc29c9c2b5184c900e3fc0bbbedf7, type: 3}
  displayName: recon_lv3
  description:
  - Line 1
  - Line 2
  - Line 3
  forSell: 0
  price: 240
  upgradeTowers:
  - {fileID: 11400000, guid: 371ff024db3b83c479a92f8062a17d71, type: 2}
  - {fileID: 11400000, guid: f287a2f3e7d8f4344b27149ce4bf46d8, type: 2}
  - {fileID: 11400000, guid: b1d903eea2d7ff841865dcf0b308181c, type: 2}
