%YAML 1.1
%TAG !u! tag:unity3d.com,2011:
--- !u!114 &11400000
MonoBehaviour:
  m_ObjectHideFlags: 0
  m_CorrespondingSourceObject: {fileID: 0}
  m_PrefabInstance: {fileID: 0}
  m_PrefabAsset: {fileID: 0}
  m_GameObject: {fileID: 0}
  m_Enabled: 1
  m_EditorHideFlags: 0
  m_Script: {fileID: 11500000, guid: 9c1fa7d29fa54993bd86cf0ab24f62e7, type: 3}
  m_Name: User Save
  m_EditorClassIdentifier: 
  levelUnlocked: 1
  points: 1000
  purchasedItem: []
  equippedItem: []
